<?xml version="1.0" encoding="UTF-8"?>
<session version="1.0">
<refactoring comment="Rename resource &apos;Accelerometer_pemicro/Sources/ProcessorExpert.c&apos; to &apos;accelerometer.c&apos;" description="Rename resource &apos;ProcessorExpert.c&apos;" flags="7" id="org.eclipse.ltk.core.refactoring.rename.resource" input="Sources/ProcessorExpert.c" name="accelerometer.c" stamp="1401497535507" updateReferences="true"/>
</session>